1581793111750
1581793111783
1581793111817
1581793111850
1581793111883
1581793111917
1581793111950
1581793111983
1581793112017
1581793112049
1581793112084
1581793112117
1581793112150
1581793112183
1581793112216
1581793112250
1581793112283
1581793112316
1581793112350
1581793112383
1581793112417
1581793112450
1581793112483
1581793112517
1581793112550
1581793112584
1581793112618
1581793112651
1581793112683
1581793112716
1581793112750
1581793112783
1581793112817
1581793112851
1581793112886
1581793112917
1581793112950
1581793112984
1581793113019
1581793113050
1581793113083
1581793113116
1581793113150
1581793113184
1581793113217
1581793113250
1581793113283
1581793113317
1581793113350
1581793113383
1581793113417
1581793113450
1581793113483
1581793113518
1581793113553
1581793113583
1581793113616
1581793113650
1581793113683
1581793113717
1581793113750
1581793113783
1581793113816
1581793113850
1581793113884
1581793113917
1581793113950
1581793113983
1581793114017
1581793114049
1581793114084
1581793114117
1581793114150
1581793114183
1581793114216
1581793114250
1581793114283
1581793114316
1581793114350
1581793114383
1581793114416
1581793114450
1581793114483
1581793114516
1581793114550
1581793114583
1581793114617
1581793114650
1581793114683
1581793114716
1581793114750
1581793114783
1581793114817
1581793114850
1581793114883
1581793114916
1581793114950
1581793114987
1581793115019
1581793115051
1581793115083
1581793115116
1581793115151
1581793115184
1581793115217
1581793115250
1581793115283
1581793115317
1581793115350
1581793115384
1581793115417
1581793115450
1581793115484
1581793115517
1581793115550
1581793115583
1581793115617
1581793115652
1581793115683
1581793115716
1581793115751
1581793115785
1581793115817
1581793115851
1581793115883
1581793115917
1581793115950
1581793115984
1581793116017
1581793116050
1581793116083
1581793116122
1581793116152
1581793116183
1581793116216
1581793116249
1581793116284
1581793116317
1581793116350
1581793116383
1581793116416
1581793116454
1581793116488
1581793116517
1581793116550
1581793116583
1581793116616
1581793116650
1581793116684
1581793116716
1581793116750
1581793116783
1581793116816
1581793116851
1581793116883
1581793116917
1581793116950
1581793116983
1581793117017
1581793117051
1581793117083
1581793117118
1581793117150
1581793117183
1581793117217
1581793117250
1581793117287
1581793117316
1581793117350
1581793117383
1581793117417
1581793117450
1581793117483
1581793117517
1581793117549
1581793117583
1581793117617
1581793117650
1581793117683
1581793117716
1581793117749
1581793117784
1581793117817
1581793117851
1581793117883
1581793117916
1581793117950
1581793117983
1581793118017
1581793118050
1581793118083
1581793118116
1581793118150
1581793118185
1581793118217
1581793118250
1581793118283
1581793118317
1581793118350
1581793118383
1581793118416
1581793118450
1581793118483
1581793118533
1581793118550
1581793118583
1581793118616
1581793118650
1581793118684
1581793118717
1581793118750
1581793118783
1581793118816
1581793118851
1581793118883
1581793118917
1581793118950
1581793118983
1581793119016
1581793119050
1581793119083
1581793119117
1581793119150
1581793119184
1581793119216
1581793119250
1581793119283
1581793119317
1581793119350
1581793119383
1581793119416
1581793119450
1581793119483
1581793119517
1581793119550
1581793119583
1581793119617
1581793119650
1581793119683
1581793119716
1581793119750
1581793119782
1581793119817
1581793119850
1581793119883
1581793119918
1581793119950
1581793119984
1581793120017
1581793120050
1581793120083
1581793120117
1581793120150
1581793120184
1581793120217
1581793120250
1581793120283
1581793120317
1581793120350
1581793120383
1581793120416
1581793120449
1581793120484
1581793120517
1581793120550
1581793120583
1581793120616
1581793120650
1581793120684
1581793120717
1581793120750
1581793120783
1581793120816
1581793120850
1581793120883
1581793120916
1581793120949
1581793120984
1581793121017
1581793121050
1581793121083
1581793121117
1581793121150
1581793121183
1581793121216
1581793121249
1581793121284
1581793121316
1581793121350
1581793121384
1581793121417
1581793121450
1581793121484
1581793121517
1581793121550
1581793121583
1581793121616
1581793121650
1581793121684
1581793121717
1581793121781
